<svg width="145" height="1" viewBox="0 0 145 1" fill="none" xmlns="http://www.w3.org/2000/svg">
<path id="Vector" d="M144.702 0.410381C144.702 0.615148 112.452 0.785789 72.6722 0.785789C32.8925 0.785789 0.641968 0.615148 0.641968 0.410381C0.641968 0.205614 32.884 0.0349731 72.6722 0.0349731C112.46 0.0349731 144.702 0.205614 144.702 0.410381Z" fill="#455A64"/>
</svg>
