<svg width="97" height="11" viewBox="0 0 97 11" fill="none" xmlns="http://www.w3.org/2000/svg">
<path id="Vector" d="M0.249878 0.856598L6.27658 10.4465H91.12L96.7199 0.856598H0.249878Z" fill="#263238"/>
</svg>
